Powered by StreetViewConverter v1.5.17 from https://www.assetstore.unity3d.com/en/#!/content/28512
Support: sss1024@gmail.com 
https://www.google.com/maps/place/Kaaba/@21.4227111,39.8259986,3a,75y,45.81h,75.78t/data=!3m8!1e1!3m6!1s-2FRCQfxdyEU%2FVcXXPLX95BI%2FAAAAAAAAAGg%2FmJe6HJcUyrE!2e4!3e11!6s%2F%2Flh4.googleusercontent.com%2F-2FRCQfxdyEU%2FVcXXPLX95BI%2FAAAAAAAAAGg%2FmJe6HJcUyrE%2Fw239-h100-n-k-no%2F!7i11264!8i4696!4m2!3m1!1s0x15c204b74c28d467:0xb2f543a618225767!6m1!1e1
