Powered by StreetViewConverter v1.5.17 from https://www.assetstore.unity3d.com/en/#!/content/28512
Support: sss1024@gmail.com 
https://www.google.com/maps/place/Statue+of+Liberty+National+Monument/@40.6889811,-74.0438545,3a,75y,196.82h,78.38t/data=!3m7!1e1!3m5!1s2s01xmQ0dR8QDQL2n3cFIg!2e0!6s%2F%2Fgeo2.ggpht.com%2Fcbk%3Fpanoid%3D2s01xmQ0dR8QDQL2n3cFIg%26output%3Dthumbnail%26cb_client%3Dmaps_sv.tactile.gps%26thumb%3D2%26w%3D203%26h%3D100%26yaw%3D191.09833%26pitch%3D0!7i13312!8i6656!4m2!3m1!1s0x89c25090129c363d:0x40c6a5770d25022b!6m1!1e1

